\relax 
\providecommand\hyper@newdestlabel[2]{}
\catcode `"\active 
\catcode `-\active 
\providecommand\HyperFirstAtBeginDocument{\AtBeginDocument}
\HyperFirstAtBeginDocument{\ifx\hyper@anchor\@undefined
\global\let\oldcontentsline\contentsline
\gdef\contentsline#1#2#3#4{\oldcontentsline{#1}{#2}{#3}}
\global\let\oldnewlabel\newlabel
\gdef\newlabel#1#2{\newlabelxx{#1}#2}
\gdef\newlabelxx#1#2#3#4#5#6{\oldnewlabel{#1}{{#2}{#3}}}
\AtEndDocument{\ifx\hyper@anchor\@undefined
\let\contentsline\oldcontentsline
\let\newlabel\oldnewlabel
\fi}
\fi}
\global\let\hyper@last\relax 
\gdef\HyperFirstAtBeginDocument#1{#1}
\providecommand\HyField@AuxAddToFields[1]{}
\providecommand\HyField@AuxAddToCoFields[2]{}
\citation{Krsek}
\babel@aux{czech}{}
\@writefile{toc}{\contentsline {section}{\numberline {1}Zad\IeC {\'a}n\IeC {\'\i }}{1}{section.1}\protected@file@percent }
\newlabel{sec:1}{{1}{1}{Zadání}{section.1}{}}
\@writefile{toc}{\contentsline {subsection}{\numberline {1.1}P\IeC {\r u}vodn\IeC {\'\i } zad\IeC {\'a}n\IeC {\'\i }}{1}{subsection.1.1}\protected@file@percent }
\newlabel{subsec:1.1}{{1.1}{1}{Původní zadání}{subsection.1.1}{}}
\@writefile{toc}{\contentsline {subsection}{\numberline {1.2}Nov\IeC {\'e} zad\IeC {\'a}n\IeC {\'\i }}{1}{subsection.1.2}\protected@file@percent }
\newlabel{subsec:1.2}{{1.2}{1}{Nové zadání}{subsection.1.2}{}}
\@writefile{toc}{\contentsline {section}{\numberline {2}\IeC {\v R}e\IeC {\v s}en\IeC {\'\i } probl\IeC {\'e}mu}{1}{section.2}\protected@file@percent }
\newlabel{sec:2}{{2}{1}{Řešení problému}{section.2}{}}
\citation{Petrik}
\citation{Petrik}
\@writefile{toc}{\contentsline {subsection}{\numberline {2.1}Thresholding}{2}{subsection.2.1}\protected@file@percent }
\newlabel{subsec:2.1}{{2.1}{2}{Thresholding}{subsection.2.1}{}}
\@writefile{lot}{\contentsline {table}{\numberline {1}{\ignorespaces Hodnoty pro thresholding\relax }}{2}{table.caption.1}\protected@file@percent }
\@writefile{lof}{\contentsline {figure}{\numberline {1}{\ignorespaces Uk\IeC {\'a}zka v\IeC {\'y}sledku thresholdingu\relax }}{2}{figure.caption.2}\protected@file@percent }
\@writefile{toc}{\contentsline {subsection}{\numberline {2.2}Nalezen\IeC {\'\i } ty\IeC {\v c}ek}{2}{subsection.2.2}\protected@file@percent }
\newlabel{subsec:2.2}{{2.2}{2}{Nalezení tyček}{subsection.2.2}{}}
\@writefile{toc}{\contentsline {subsection}{\numberline {2.3}Ur\IeC {\v c}en\IeC {\'\i } vzd\IeC {\'a}lenosti ty\IeC {\v c}ek}{2}{subsection.2.3}\protected@file@percent }
\newlabel{subsec:2.3}{{2.3}{2}{Určení vzdálenosti tyček}{subsection.2.3}{}}
\@writefile{toc}{\contentsline {subsection}{\numberline {2.4}Zasazen\IeC {\'\i } do skute\IeC {\v c}n\IeC {\'e}ho sv\IeC {\v e}ta}{3}{subsection.2.4}\protected@file@percent }
\newlabel{subsec:2.4}{{2.4}{3}{Zasazení do skutečného světa}{subsection.2.4}{}}
\providecommand*\caption@xref[2]{\@setref\relax\@undefined{#1}}
\newlabel{fig:2.1}{{2a}{3}{Nalezení tyček na obrázku\relax }{figure.caption.3}{}}
\newlabel{sub@fig:2.1}{{a}{3}{Nalezení tyček na obrázku\relax }{figure.caption.3}{}}
\newlabel{fig:2.2}{{2b}{3}{Promítnutí nalezených tyček\relax }{figure.caption.3}{}}
\newlabel{sub@fig:2.2}{{b}{3}{Promítnutí nalezených tyček\relax }{figure.caption.3}{}}
\@writefile{lof}{\contentsline {figure}{\numberline {2}{\ignorespaces \relax }}{3}{figure.caption.3}\protected@file@percent }
\@writefile{toc}{\contentsline {subsection}{\numberline {2.5}V\IeC {\'y}po\IeC {\v c}et hledan\IeC {\'y}ch parametr\IeC {\r u}}{3}{subsection.2.5}\protected@file@percent }
\@writefile{toc}{\contentsline {subsubsection}{\numberline {2.5.1}\textbf  {c, g} [obrazov\IeC {\'e} body] - cg(rects, img)}{3}{subsubsection.2.5.1}\protected@file@percent }
\@writefile{toc}{\contentsline {subsubsection}{\numberline {2.5.2}d [m] - xz\_distance(points)}{4}{subsubsection.2.5.2}\protected@file@percent }
\@writefile{toc}{\contentsline {subsubsection}{\numberline {2.5.3}v [m] - middle\_distance(points)}{4}{subsubsection.2.5.3}\protected@file@percent }
\@writefile{toc}{\contentsline {subsubsection}{\numberline {2.5.4}$\boldsymbol  {\alpha }$ [rad] - alpha\_deg(points)}{4}{subsubsection.2.5.4}\protected@file@percent }
\@writefile{toc}{\contentsline {subsubsection}{\numberline {2.5.5}$\boldsymbol  {\beta } - beta\_deg(points, alpha)$ [rad]}{4}{subsubsection.2.5.5}\protected@file@percent }
\@writefile{toc}{\contentsline {subsubsection}{\numberline {2.5.6}GoThrough [bool]}{4}{subsubsection.2.5.6}\protected@file@percent }
\@writefile{toc}{\contentsline {section}{\numberline {3}Implementace a v\IeC {\'y}sledky}{4}{section.3}\protected@file@percent }
\@writefile{lof}{\contentsline {figure}{\numberline {3}{\ignorespaces Poloha robota v\IeC {\r u}\IeC {\v c}i brance\relax }}{5}{figure.caption.4}\protected@file@percent }
\newlabel{fig:2.3}{{3}{5}{Poloha robota vůči brance\relax }{figure.caption.4}{}}
\@writefile{lot}{\contentsline {table}{\numberline {2}{\ignorespaces Hodnoty v\IeC {\'y}sledk\IeC {\r u}\relax }}{5}{table.caption.5}\protected@file@percent }
\@writefile{lot}{\contentsline {table}{\numberline {3}{\ignorespaces O\IeC {\v c}ek\IeC {\'a}van\IeC {\'e} v\IeC {\'y}sledky\relax }}{5}{table.caption.6}\protected@file@percent }
\bibcite{Krsek}{1}
\bibcite{Petrik}{2}
\newlabel{fig:3.1}{{4a}{6}{Výsledky pro experiment\_01/exp1\_pos01.mat\relax }{figure.caption.7}{}}
\newlabel{sub@fig:3.1}{{a}{6}{Výsledky pro experiment\_01/exp1\_pos01.mat\relax }{figure.caption.7}{}}
\newlabel{fig:3.2}{{4b}{6}{Výsledky pro experiment\_02/exp2\_pos02.mat\relax }{figure.caption.7}{}}
\newlabel{sub@fig:3.2}{{b}{6}{Výsledky pro experiment\_02/exp2\_pos02.mat\relax }{figure.caption.7}{}}
\@writefile{lof}{\contentsline {figure}{\numberline {4}{\ignorespaces Grafick\IeC {\'a} reprezentace v\IeC {\'y}sledk\IeC {\r u}\relax }}{6}{figure.caption.7}\protected@file@percent }
\@writefile{toc}{\contentsline {section}{\numberline {4}Z\IeC {\'a}v\IeC {\v e}r}{6}{section.4}\protected@file@percent }
\@writefile{toc}{\contentsline {section}{\numberline {5}N\IeC {\'a}vrh \IeC {\'u}lohy pro p\IeC {\v r}\IeC {\'\i }\IeC {\v s}t\IeC {\'\i } rok.}{6}{section.5}\protected@file@percent }
